<svg id="export" xmlns="http://www.w3.org/2000/svg" viewBox="0 0 512 512">
  <defs>
    <style>
      .cls-1 {
        fill: currentColor;
      }
    </style>
  </defs>
  <title>arrow-circle-bottom</title>
  <g>
    <path class="cls-1" d="M256,16C123.4517,16,16,123.4517,16,256S123.4517,496,256,496,496,388.5483,496,256,388.5483,16,256,16ZM403.0781,403.0781a207.2482,207.2482,0,1,1,44.5894-66.125A207.3435,207.3435,0,0,1,403.0781,403.0781Z"/>
    <polygon class="cls-1" points="272.112 314.481 272.112 128 240.112 128 240.112 314.481 165.059 239.429 142.432 262.056 256.112 375.736 369.793 262.056 347.166 239.429 272.112 314.481"/>
  </g>
</svg>
