<svg id="export" xmlns="http://www.w3.org/2000/svg" viewBox="0 0 512 512">
  <defs>
    <style>
      .cls-1 {
        fill: currentColor;
      }
    </style>
  </defs>
  <title>chevron-top-alt</title>
  <polygon class="cls-1" points="428.686 347.313 256 174.628 83.314 347.313 60.686 324.687 256 129.373 451.314 324.687 428.686 347.313"/>
</svg>
