<svg id="export" xmlns="http://www.w3.org/2000/svg" viewBox="0 0 512 512">
  <defs>
    <style>
      .cls-1 {
        fill: currentColor;
      }
    </style>
  </defs>
  <title>chevron-double-down-alt</title>
  <polygon class="cls-1" points="256 286.627 60.686 91.313 83.314 68.687 256 241.372 428.686 68.687 451.314 91.313 256 286.627"/>
  <polygon class="cls-1" points="256 446.627 60.686 251.313 83.314 228.687 256 401.372 428.686 228.687 451.314 251.313 256 446.627"/>
</svg>
