<svg id="export" xmlns="http://www.w3.org/2000/svg" viewBox="0 0 512 512">
  <defs>
    <style>
      .cls-1 {
        fill: currentColor;
      }
    </style>
  </defs>
  <title>chevron-double-right</title>
  <g>
    <path class="cls-1" d="M503.9331,255.9333l.041-.0415L435.8926,187.81l-6.221-6.1755L424.55,176.55,315.5161,67.5164l-79.4624,79.4628L345.0747,256,236.0537,365.0208l79.4624,79.4628,109.021-109.021.041.0411.0672-.0672,0,0,68.0816-68.0816L504,256ZM315.5161,399.2288l-34.2075-34.208L390.33,256l-109.021-109.021,34.2075-34.208,97.707,97.7071,11.355,11.2729L458.8271,256l-34.249,34.249-.041-.041-.0669.0669Z"/>
    <path class="cls-1" d="M282.7915,256l-.0669-.0669.041-.0415L214.6841,187.81l-11.2886-11.2061L94.3076,67.5164,14.8452,146.9792,123.8662,256,14.8452,365.0208l79.4624,79.4628L203.3955,335.3958l.0415.041,68.0816-68.0816Zm-79.4883,34.3155-.0415-.041L94.3076,399.2288,60.1,365.0208,169.1211,256,60.1,146.9792l34.2075-34.208,97.707,97.7071,11.28,11.1972L237.6191,256Z"/>
  </g>
</svg>
