<svg id="export" xmlns="http://www.w3.org/2000/svg" viewBox="0 0 512 512">
  <defs>
    <style>
      .cls-1 {
        fill: currentColor;
      }
    </style>
  </defs>
  <title>chevron-square-right-alt</title>
  <path class="cls-1" d="M472,496H40a24.0275,24.0275,0,0,1-24-24V40A24.0275,24.0275,0,0,1,40,16H472a24.0275,24.0275,0,0,1,24,24V472A24.0275,24.0275,0,0,1,472,496ZM48,464H464V48H48Z"/>
  <polygon class="cls-1" points="227.314 379.313 204.686 356.687 305.373 256 204.686 155.313 227.314 132.687 350.627 256 227.314 379.313"/>
</svg>
