<svg id="export" xmlns="http://www.w3.org/2000/svg" viewBox="0 0 512 512">
  <defs>
    <style>
      .cls-1 {
        fill: currentColor;
      }
    </style>
  </defs>
  <title>plus</title>
  <polygon class="cls-1" points="440 240 272 240 272 72 240 72 240 240 72 240 72 272 240 272 240 440 272 440 272 272 440 272 440 240"/>
</svg>
