<svg id="export" xmlns="http://www.w3.org/2000/svg" viewBox="0 0 512 512">
  <defs>
    <style>
      .cls-1 {
        fill: currentColor;
      }
    </style>
  </defs>
  <title>reload</title>
  <path class="cls-1" d="M265.6138,206.3867H456V16H424V149.8867L397.8633,123.75c-79.5391-79.5391-208.96-79.54-288.499,0s-79.54,208.96,0,288.5a204.2313,204.2313,0,0,0,288.499,0l-22.627-22.627c-67.0634,67.0625-176.1821,67.0625-243.2446,0s-67.063-176.1826-.0005-243.246,176.1817-67.0625,243.2451,0l28.01,28.01H265.6138Z"/>
</svg>
