<svg id="export" xmlns="http://www.w3.org/2000/svg" viewBox="0 0 512 512">
  <defs>
    <style>
      .cls-1 {
        fill: currentColor;
      }
    </style>
  </defs>
  <title>trash-arrow-up</title>
  <g>
    <path class="cls-1" d="M96,472a23.8192,23.8192,0,0,0,23.5791,24H392.4209A23.8192,23.8192,0,0,0,416,472V152H96Zm32-288H384V464H128Z"/>
    <path class="cls-1" d="M328,88V40c0-13.458-9.4873-24-21.6-24H205.6C193.4873,16,184,26.542,184,40V88H64v32H448V88ZM216,48h80V88H216Z"/>
    <polygon class="cls-1" points="175.04 306.735 197.667 329.362 240 287.03 240 424 272 424 272 286.226 314.333 328.559 336.96 305.932 256.402 225.372 175.04 306.735"/>
  </g>
</svg>
