<svg id="export" xmlns="http://www.w3.org/2000/svg" viewBox="0 0 512 512">
  <defs>
    <style>
      .cls-1 {
        fill: currentColor;
      }
    </style>
  </defs>
  <title>widgets</title>
  <g>
    <path class="cls-1" d="M16,496H200V312H16ZM48,344H168V464H48Z"/>
    <path class="cls-1" d="M16,248H200V64H16ZM48,96H168V216H48Z"/>
    <path class="cls-1" d="M272,496H456V312H272Zm32-152H424V464H304Z"/>
    <path class="cls-1" d="M493.5879,156.52,363.4805,26.4111,233.3726,156.52,363.4805,286.6279ZM363.4805,71.667,448.333,156.52l-84.8525,84.8526L278.6274,156.52Z"/>
  </g>
</svg>
