<svg id="export" xmlns="http://www.w3.org/2000/svg" viewBox="0 0 512 512">
  <defs>
    <style>
      .cls-1 {
        fill: currentColor;
      }
    </style>
  </defs>
  <title>report-slash</title>
  <g>
    <rect class="cls-1" x="240" y="352" width="32" height="32"/>
    <polygon class="cls-1" points="355.411 16 156.589 16 121.653 53.771 144.298 76.416 170.58 48 341.42 48 464 180.53 464 331.47 432.937 365.055 455.581 387.7 496 344 496 168 355.411 16"/>
    <polygon class="cls-1" points="240 128 240 172.118 272 204.118 272 128 240 128"/>
    <path class="cls-1" d="M16,16V38.627l62.1636,62.1636L16,168V344L156.5886,496H355.4114l56.68-61.2811L473.373,496H496V473.373L38.627,16ZM341.42,464H170.58L48,331.47V180.53l52.8081-57.0946L240,262.627V320h32V294.627L389.4473,412.0743Z"/>
  </g>
</svg>
