<svg id="export" xmlns="http://www.w3.org/2000/svg" viewBox="0 0 512 512">
  <defs>
    <style>
      .cls-1 {
        fill: currentColor;
      }
    </style>
  </defs>
  <title>accessible</title>
  <g>
    <circle class="cls-1" cx="413.9122" cy="74.0878" r="34.0878"/>
    <path class="cls-1" d="M398.36,231.2705h-96.376l79.6725-79.6725a24,24,0,0,0,0-33.9411L353.3726,89.3726l-.4469.4468-64.3212-65.99a25.2927,25.2927,0,0,0-35.4087-.6719L182.0449,90.8164l22.0508,23.1895,66.2827-63.03,59.9181,61.4725-87.124,87.124A152.0276,152.0276,0,0,0,97.6506,224.7072l22.7819,22.7819a119.6762,119.6762,0,0,1,76.8912-24.3471c62.737,2.2169,113.63,53.111,115.8459,115.848a119.676,119.676,0,0,1-24.3474,76.8888l22.7818,22.7818a151.925,151.925,0,0,0,10.8439-175.39h69.1107V403.6421h32V256.4688A25.1982,25.1982,0,0,0,398.36,231.2705Zm-98.41,3.8037c-.2967-.2932-.5962-.5835-.8953-.8742l.8953-.8953Z"/>
    <path class="cls-1" d="M192.9917,463.5737A120.1864,120.1864,0,0,1,97.7205,270.0311L74.9542,247.2648a151.5342,151.5342,0,0,0-34.2169,96.0545c0,83.9532,68.3013,152.2544,152.2544,152.2544a151.5344,151.5344,0,0,0,96.0546-34.2168L266.28,438.5906A119.64,119.64,0,0,1,192.9917,463.5737Z"/>
  </g>
</svg>
