<svg id="export" xmlns="http://www.w3.org/2000/svg" viewBox="0 0 512 512">
  <defs>
    <style>
      .cls-1 {
        fill: currentColor;
      }
    </style>
  </defs>
  <title>accessibility</title>
  <g>
    <path class="cls-1" d="M256,144a64,64,0,1,0-64-64A64.0726,64.0726,0,0,0,256,144Zm0-96a32,32,0,1,1-32,32A32.0361,32.0361,0,0,1,256,48Z"/>
    <path class="cls-1" d="M448,248V160H64v88H192v58.4839l-76.082,190.562,93.4414-1.1812,43.2915-105.85L295.998,496h95.9473L312,302.9863V248ZM344.0547,464H317.4834L265.1323,336H240.1694L187.7637,464.1353l-24.3731.3081L224,312.6362V216H96V192H416v24H280v93.3516Z"/>
  </g>
</svg>
