<svg id="export" xmlns="http://www.w3.org/2000/svg" viewBox="0 0 512 512">
  <defs>
    <style>
      .cls-1 {
        fill: currentColor;
      }
    </style>
  </defs>
  <title>wheelchair#disabled</title>
  <g>
    <circle class="cls-1" cx="221.9122" cy="66.0878" r="34.0878"/>
    <path class="cls-1" d="M460.12,360.4775l-47.9428,11.9859L393,282.9707A24.1239,24.1239,0,0,0,369.5327,264H280.8276l-6.4615-56H384V176H270.6738L266.54,140.1738a24,24,0,0,0-26.5927-21.0908l-39.7364,4.585L220.0954,296h142.97l24.7578,115.5366L467.88,391.5225Z"/>
    <path class="cls-1" d="M224,448a119.9955,119.9955,0,0,1-45.2479-231.1349l-3.7788-32.75C115.1426,204.5576,72,261.3339,72,328c0,83.813,68.187,152,152,152a152.0589,152.0589,0,0,0,130.0437-73.3781L344,360C328,408,282.6021,448,224,448Z"/>
  </g>
</svg>
