<svg id="export" xmlns="http://www.w3.org/2000/svg" viewBox="0 0 512 512">
  <defs>
    <style>
      .cls-1 {
        fill: currentColor;
      }
    </style>
  </defs>
  <title>euro-circle-slash</title>
  <g>
    <path class="cls-1" d="M175.0469,64.3325A208.1327,208.1327,0,0,1,447.6674,336.9531q-1.8942,4.4784-3.9885,8.844l23.785,23.7849A238.924,238.924,0,0,0,496,256C496,123.4517,388.5483,16,256,16A238.9247,238.9247,0,0,0,142.4179,44.5361l23.785,23.7849Q170.57,66.2308,175.0469,64.3325Z"/>
    <path class="cls-1" d="M253.1607,155.2788A107.8458,107.8458,0,0,1,279.6,152H330V120H279.6a139.268,139.268,0,0,0-51.7861,9.9321Z"/>
    <path class="cls-1" d="M70.627,18H48V40.627L90.0248,82.6519A239.3021,239.3021,0,0,0,16,256c0,132.5483,107.4517,240,240,240a239.3016,239.3016,0,0,0,173.3482-74.0249L471.373,464H496V443.373ZM287.373,280H173.4642a108.0513,108.0513,0,0,1-1.1939-32H255.373Zm-64-64H180.9778a108.2535,108.2535,0,0,1,16.4248-25.97ZM406.7183,399.3452q-1.7952,1.8854-3.64,3.7329A208,208,0,1,1,108.9219,108.9219q1.8464-1.8465,3.7328-3.64l62.0775,62.0774A140.0411,140.0411,0,0,0,146.69,216H104v32h36.12c-.3375,3.9568-.52,7.9573-.52,12a140.5386,140.5386,0,0,0,1.4348,20H104v32h45.62A140.2214,140.2214,0,0,0,279.6,400H330V368H279.6a108.0833,108.0833,0,0,1-94.6307-56H319.373Z"/>
  </g>
</svg>
