<svg id="export" xmlns="http://www.w3.org/2000/svg" viewBox="0 0 512 512">
  <defs>
    <style>
      .cls-1 {
        fill: currentColor;
      }
    </style>
  </defs>
  <title>toll</title>
  <g>
    <path class="cls-1" d="M48,256c0-69.9736,47.5313-129.0444,112-146.6484v-32.96C77.7122,94.7056,16,168.2761,16,256S77.7122,417.2944,160,435.6082v-32.96C95.5313,385.0444,48,325.9736,48,256Z"/>
    <path class="cls-1" d="M312,72c-101.458,0-184,82.542-184,184s82.542,184,184,184,184-82.542,184-184S413.458,72,312,72Zm0,336c-83.8135,0-152-68.1865-152-152s68.1865-152,152-152,152,68.1865,152,152S395.8135,408,312,408Z"/>
  </g>
</svg>
