<svg id="export" xmlns="http://www.w3.org/2000/svg" viewBox="0 0 512 512">
  <defs>
    <style>
      .cls-1 {
        fill: currentColor;
      }
    </style>
  </defs>
  <title>text-size</title>
  <g>
    <polygon class="cls-1" points="176 104 176 184 208 184 208 136 304 136 304 368 264 368 264 400 408 400 408 368 368 368 368 136 464 136 464 184 496 184 496 104 176 104"/>
    <polygon class="cls-1" points="16 280 48 280 48 248 104 248 104 400 72 400 72 432 184 432 184 400 152 400 152 248 216 248 216 280 248 280 248 216 16 216 16 280"/>
  </g>
</svg>
