<svg id="export" xmlns="http://www.w3.org/2000/svg" viewBox="0 0 512 512">
  <defs>
    <style>
      .cls-1 {
        fill: currentColor;
      }
    </style>
  </defs>
  <title>text-rotation-down</title>
  <g>
    <path class="cls-1" d="M192,61.92v58.055l61,24.0789V271.9462l-61,24.0789V354.08l283-111.711V173.6309ZM307,250.63V165.37L414.9971,208Z"/>
    <polygon class="cls-1" points="120 425.373 120 376 120 48 88 48 88 425.373 43.313 380.687 20.687 403.313 104 486.627 187.313 403.313 164.687 380.687 120 425.373"/>
  </g>
</svg>
