<svg id="export" xmlns="http://www.w3.org/2000/svg" viewBox="0 0 512 512">
  <defs>
    <style>
      .cls-1 {
        fill: currentColor;
      }
    </style>
  </defs>
  <title>text-rotation-none</title>
  <g>
    <path class="cls-1" d="M152.0537,283H279.9463l24.079,61H362.08L250.37,61H181.63L69.92,344h58.0547ZM216,121.0029,258.63,229H173.37Z"/>
    <polygon class="cls-1" points="411.313 332.687 388.687 355.313 433.373 400 384 400 40 400 24 400 24 432 433.373 432 388.687 476.687 411.313 499.313 494.627 416 411.313 332.687"/>
  </g>
</svg>
