<svg xmlns="http://www.w3.org/2000/svg" viewBox="0 0 512 512">
  <defs>
    <style>
      .a {
        fill: currentColor;
      }
    </style>
  </defs>
  <title>contacts</title>
  <g>
    <path class="a" d="M472,128H40a24.0275,24.0275,0,0,0-24,24V472a24.0275,24.0275,0,0,0,24,24H144V425.7178l91.0791-47.3233L208,310.6963V256.8887a48,48,0,0,1,96,0v53.8076l-27.0791,67.6982L368,425.7178V496H472a24.0275,24.0275,0,0,0,24-24V152A24.0275,24.0275,0,0,0,472,128Zm-8,336H400V425.7178a31.8946,31.8946,0,0,0-17.2471-28.3965h.001l-65.3564-33.958L336,316.8584v-59.97a80,80,0,0,0-160,0v59.97l18.6025,46.5049-65.3554,33.958A31.8946,31.8946,0,0,0,112,425.7178V464H48V160H464Z"/>
    <rect class="a" x="128" y="16" width="256" height="32"/>
    <rect class="a" x="64" y="72" width="384" height="32"/>
  </g>
</svg>
