<svg xmlns="http://www.w3.org/2000/svg" viewBox="0 0 512 512">
  <defs>
    <style>
      .a {
        fill: currentColor;
      }
    </style>
  </defs>
  <title>phone</title>
  <path class="a" d="M449.3659,89.6484l-.6846-.4287L362.0876,46.5586,268.6247,171.1758l43.0019,57.3369a88.5291,88.5291,0,0,1-83.1142,83.1143l-57.336-43.002L46.5583,362.0879,88.8639,447.957l.3565.7246.4287.6846a25.0839,25.0839,0,0,0,21.3926,11.8565h22.3447a327.8362,327.8362,0,0,0,327.8359-327.837V111.041A25.0839,25.0839,0,0,0,449.3659,89.6484Zm-20.1436,43.7373c0,163.125-132.7119,295.837-295.8359,295.837h-18.08L86.9958,371.76l84.1806-63.1348,46.8662,35.1494h5.3331A120.5353,120.5353,0,0,0,343.7741,223.375v-5.333l-35.1494-46.8662,63.1347-84.18,57.4629,28.3105Z"/>
</svg>
