<svg xmlns="http://www.w3.org/2000/svg" viewBox="0 0 512 512">
  <defs>
    <style>
      .a {
        fill: currentColor;
      }
    </style>
  </defs>
  <title>phone-forward</title>
  <g>
    <path class="a" d="M248.71,332.85a88.5283,88.5283,0,0,1-83.1142-83.1152l43.0019-57.336L115.1348,67.7813,28.5405,110.4434l-.685.4277A25.0876,25.0876,0,0,0,16,132.2637v22.3447A327.8371,327.8371,0,0,0,343.8364,482.4453h22.3448a25.0868,25.0868,0,0,0,21.3916-11.8545l.4287-.6855,42.6626-86.5948L306.0464,289.8467ZM361.916,450.4453h-18.08C180.7114,450.4453,48,317.7334,48,154.6084V136.5293l57.4629-28.3105,63.1352,84.18-35.1494,46.8662v5.3331A120.5351,120.5351,0,0,0,253.8472,364.9971h5.3335l46.8657-35.15,84.18,63.1357Z"/>
    <path class="a" d="M314.4453,256h46.2559l121.333-112L360.7012,32H314.4453V72h-64V208h64Zm-32-80V104h64V64H348.19l86.6665,80L348.19,224h-1.7442V176Z"/>
  </g>
</svg>
