<svg id="export" xmlns="http://www.w3.org/2000/svg" viewBox="0 0 512 512">
  <defs>
    <style>
      .cls-1 {
        fill: currentColor;
      }
    </style>
  </defs>
  <title>school#education</title>
  <g>
    <polygon class="cls-1" points="368 350.643 256 413.643 144 350.643 144 284.081 112 266.303 112 369.357 256 450.357 400 369.357 400 266.303 368 284.081 368 350.643"/>
    <path class="cls-1" d="M256,45.9766,32,162.1248v27.7341L256,314.3037l192-106.667V296h32V162.1248ZM416,188.8079l-32,17.7775L256,277.6963,128,206.5854,96,188.8079,73.8213,176.4863,256,82.0234l182.1787,94.4629Z"/>
  </g>
</svg>
