<svg id="export" xmlns="http://www.w3.org/2000/svg" viewBox="0 0 512 512">
  <defs>
    <style>
      .cls-1 {
        fill: currentColor;
      }
    </style>
  </defs>
  <title>book-open</title>
  <g>
    <path class="cls-1" d="M350.1006,16A123.3276,123.3276,0,0,0,256,59.8008,123.3259,123.3259,0,0,0,161.8994,16H16V368H139.6479a83.0155,83.0155,0,0,1,77.3707,53.6177L220.9121,432h70.1758l3.8935-10.3823A83.0155,83.0155,0,0,1,372.3521,368H496V16ZM176,48V196.0566L143.668,172,112,195.9419V48Zm28.9419,308.4131A114.1168,114.1168,0,0,0,139.6479,336H48V48H80V232h37.3677l26.4536-20,26.8794,20H208V60.5834a90.9856,90.9856,0,0,1,32,31.7271V395.2274A114.05,114.05,0,0,0,204.9419,356.4131ZM464,336H372.3521A114.6266,114.6266,0,0,0,272,395.2274V92.31A91.2065,91.2065,0,0,1,350.1006,48H464Z"/>
    <path class="cls-1" d="M347.0581,420.4131A114.03,114.03,0,0,0,309.5,464h-107A114.6577,114.6577,0,0,0,99.6479,400H16v32H99.6479a83.0155,83.0155,0,0,1,77.3707,53.6177L180.9121,496H331.0879l3.8935-10.3823A83.0155,83.0155,0,0,1,412.3521,432H496V400H412.3521A114.1168,114.1168,0,0,0,347.0581,420.4131Z"/>
  </g>
</svg>
