<svg id="export" xmlns="http://www.w3.org/2000/svg" viewBox="0 0 512 512">
  <defs>
    <style>
      .cls-1 {
        fill: currentColor;
      }
    </style>
  </defs>
  <title>file-code</title>
  <g>
    <polygon class="cls-1" points="175.599 286.863 113.372 349.088 175.599 411.314 198.226 388.686 158.628 349.088 198.226 309.491 175.599 286.863"/>
    <polygon class="cls-1" points="308.687 307.314 348.284 346.912 308.687 386.509 331.313 409.137 393.54 346.912 331.313 284.686 308.687 307.314"/>
    <polygon class="cls-1" points="206.889 432 240.62 432 296.62 264 262.889 264 206.889 432"/>
    <path class="cls-1" d="M334.627,16H48V496H472V153.3726ZM440,166.6274V168H320V48h1.373ZM80,464V48H288V200H440V464Z"/>
  </g>
</svg>
