<svg id="export" xmlns="http://www.w3.org/2000/svg" viewBox="0 0 512 512">
  <defs>
    <style>
      .cls-1 {
        fill: currentColor;
      }
    </style>
  </defs>
  <title>file-video</title>
  <g>
    <path class="cls-1" d="M334.6274,16H48V496H472V153.3726ZM440,166.6274V168H320V48h1.3726ZM80,464V48H288V200H440V464Z"/>
    <path class="cls-1" d="M128,224V432h30.7622L298.7515,328.0664,160.0288,224Zm32,167.2256V263.9819l85.2485,63.9517Z"/>
  </g>
</svg>
