<svg id="export" xmlns="http://www.w3.org/2000/svg" viewBox="0 0 512 512">
  <defs>
    <style>
      .cls-1 {
        fill: currentColor;
      }
    </style>
  </defs>
  <title>folder</title>
  <path class="cls-1" d="M472,472H40a24.0275,24.0275,0,0,1-24-24V64A24.0275,24.0275,0,0,1,40,40H226.6665a23.936,23.936,0,0,1,22.1543,14.77L269.333,104H472a24.0275,24.0275,0,0,1,24,24V448A24.0275,24.0275,0,0,1,472,472ZM48,440H464V136H248L221.3335,72H48Z"/>
</svg>
