<svg id="export" xmlns="http://www.w3.org/2000/svg" viewBox="0 0 512 512">
  <defs>
    <style>
      .cls-1 {
        fill: currentColor;
      }
    </style>
  </defs>
  <title>browser</title>
  <path class="cls-1" d="M472,40H40A24.0275,24.0275,0,0,0,16,64V448a24.0275,24.0275,0,0,0,24,24H472a24.0275,24.0275,0,0,0,24-24V64A24.0275,24.0275,0,0,0,472,40ZM48,72h96v72H48ZM464,440H48V176H464Zm0-296H176V72H464Z"/>
</svg>
