<svg xmlns="http://www.w3.org/2000/svg" viewBox="0 0 512 512">
  <defs>
    <style>
      .cls-1 {
        fill: none;
        stroke: #000;
        stroke-miterlimit: 10;
        stroke-width: 32px;
      }

      .cls-2 {
        fill: currentColor;
      }
    </style>
  </defs>
  <title>data-transfer-down</title>
  <g id="edit">
    <line class="cls-1" x1="264" y1="16" x2="264" y2="405.8531"/>
    <line class="cls-1" x1="16" y1="480" x2="496" y2="480"/>
    <polyline class="cls-1" points="384 288 264 408 144 288"/>
  </g>
  <g id="export">
    <g>
      <rect class="cls-2" x="16" y="464" width="480" height="32"/>
      <polygon class="cls-2" points="395.313 299.313 372.687 276.687 280 369.373 280 16 248 16 248 369.373 155.313 276.687 132.687 299.313 264 430.627 395.313 299.313"/>
    </g>
  </g>
</svg>
