<svg id="export" xmlns="http://www.w3.org/2000/svg" viewBox="0 0 512 512">
  <defs>
    <style>
      .cls-1 {
        fill: currentColor;
      }
    </style>
  </defs>
  <title>share-alt</title>
  <path class="cls-1" d="M404,344a75.9021,75.9021,0,0,0-60.2084,29.7L179.8693,280.6636a75.6961,75.6961,0,0,0,0-49.3272l163.9222-93.0371a75.9319,75.9319,0,1,0-13.7759-28.9758L163.299,203.9463a76,76,0,1,0,0,104.1074l166.7166,94.6228A75.9917,75.9917,0,1,0,404,344Zm0-296a44,44,0,1,1-44,44A44.05,44.05,0,0,1,404,48ZM108,300a44,44,0,1,1,44-44A44.05,44.05,0,0,1,108,300ZM404,464a44,44,0,1,1,44-44A44.05,44.05,0,0,1,404,464Z"/>
</svg>
