<svg id="export" xmlns="http://www.w3.org/2000/svg" viewBox="0 0 512 512">
  <defs>
    <style>
      .cls-1 {
        fill: currentColor;
      }
    </style>
  </defs>
  <title>recycle</title>
  <g>
    <path class="cls-1" d="M68.3276,383.0635a31.6575,31.6575,0,0,1,.207-32.1187l50.8838-86.406,11.5156,50.76,31.2071-7.08-23.8838-105.275L32.9829,226.8276l7.08,31.2071,53.15-12.0581L40.96,334.707a64,64,0,0,0,55.1484,96.4756h82.4351l32-32H96.1088A31.6565,31.6565,0,0,1,68.3276,383.0635Z"/>
    <path class="cls-1" d="M283.3794,79.7622,337.1259,171.03l-49.0532-7.653-4.9336,31.6171,106.66,16.6412,16.64-106.66-31.6172-4.9326-8.873,56.87L310.9536,63.5239a64.0008,64.0008,0,0,0-110.2969,0l-39.9385,67.82,10.4072,45.3894,57.1055-96.9714a32,32,0,0,1,55.1485,0Z"/>
    <path class="cls-1" d="M470.65,334.7065l-47.8667-81.2829-41.148-6.8121,61.44,104.3333a31.9994,31.9994,0,0,1-27.5742,48.2378H304.0463l38.3584-38.3579-22.6269-22.6279-76.332,76.3325,76.332,76.3325,22.6269-22.6279L305.353,431.1826H415.5014A64,64,0,0,0,470.65,334.7065Z"/>
  </g>
</svg>
