<svg id="export" xmlns="http://www.w3.org/2000/svg" viewBox="0 0 512 512">
  <defs>
    <style>
      .cls-1 {
        fill: currentColor;
      }
    </style>
  </defs>
  <title>battery-0#battery-empty</title>
  <path class="cls-1" d="M39.9858,424H408a23.8244,23.8244,0,0,0,24-23.59V344h64V176H432V119.59A23.8244,23.8244,0,0,0,408,96H39.9858a23.8245,23.8245,0,0,0-24,23.59V400.41A23.8245,23.8245,0,0,0,39.9858,424Zm8-296H400v80h64V312H400v80H47.9858Z"/>
</svg>
