<svg id="export" xmlns="http://www.w3.org/2000/svg" viewBox="0 0 512 512">
  <defs>
    <style>
      .cls-1 {
        fill: currentColor;
      }
    </style>
  </defs>
  <title>battery-alt-0#battery-alt-empty</title>
  <g>
    <rect class="cls-1" x="464.0137" y="176" width="32" height="152"/>
    <path class="cls-1" d="M407.0137,96H40a24.0275,24.0275,0,0,0-24,24V384a24.0275,24.0275,0,0,0,24,24H407.0137a24.0275,24.0275,0,0,0,24-24V120A24.0275,24.0275,0,0,0,407.0137,96Zm-8,280H48V128H399.0137Z"/>
  </g>
</svg>
