<svg id="export" xmlns="http://www.w3.org/2000/svg" viewBox="0 0 512 512">
  <defs>
    <style>
      .cls-1 {
        fill:currentColor;
      }
    </style>
  </defs>
  <title>comment-square-lines</title>
  <g>
    <path class="cls-1" d="M472,16H40A24.0275,24.0275,0,0,0,16,40V344a24.0275,24.0275,0,0,0,24,24H379.249l69.5225,128H496V40A24.0275,24.0275,0,0,0,472,16Zm-8,440.9917L398.2842,336H48V48H464Z"/>
    <rect class="cls-1" x="104" y="136" width="272" height="32"/>
    <rect class="cls-1" x="104" y="208" width="192" height="32"/>
  </g>
</svg>
