<svg id="export" xmlns="http://www.w3.org/2000/svg" viewBox="0 0 512 512">
  <defs>
    <style>
      .cls-1 {
        fill: currentColor;
      }
    </style>
  </defs>
  <title>currentColortooth-slash</title>
  <g>
    <polygon class="cls-1" points="272 54.627 353.373 136 278.627 210.745 301.254 233.373 398.627 136 278.627 16 240 16 240 172.118 272 204.118 272 54.627"/>
    <path class="cls-1" d="M38.627,16H16V38.627L233.373,256l-120,120h45.2542L240,294.6274V496h38.627L376,398.627,473.373,496H496V473.373ZM272,457.3726V294.6274L353.373,376Z"/>
  </g>
</svg>
