<svg id="export" xmlns="http://www.w3.org/2000/svg" viewBox="0 0 512 512">
  <defs>
    <style>
      .cls-1 {
        fill: currentColor;
      }
    </style>
  </defs>
  <title>dns</title>
  <g>
    <path class="cls-1" d="M16,80V240H496V80ZM464,208H48V112H464Z"/>
    <path class="cls-1" d="M16,432H496V272H16ZM48,304H464v96H48Z"/>
    <rect class="cls-1" x="80" y="144" width="32" height="32"/>
    <rect class="cls-1" x="80" y="336" width="32" height="32"/>
  </g>
</svg>
