<svg id="export" xmlns="http://www.w3.org/2000/svg" viewBox="0 0 512 512">
  <defs>
    <style>
      .cls-1 {
        fill: currentColor;
      }
    </style>
  </defs>
  <title>screen-desktop</title>
  <path class="cls-1" d="M472,48H40A24.0275,24.0275,0,0,0,16,72V368a24.0275,24.0275,0,0,0,24,24H240v72H160v32H352V464H272V392H472a24.0275,24.0275,0,0,0,24-24V72A24.0275,24.0275,0,0,0,472,48Zm-8,312H48V80H464Z"/>
</svg>
