<svg id="export" xmlns="http://www.w3.org/2000/svg" viewBox="0 0 512 512">
  <defs>
    <style>
      .cls-1 {
        fill: currentColor;
      }
    </style>
  </defs>
  <title>sdcard</title>
  <g>
    <path class="cls-1" d="M217.3726,16,72,161.373V496H456V16ZM360,464H192V336H360Zm64,0H392V304H160V464H104V174.627L230.6274,48H424Z"/>
    <rect class="cls-1" x="360" y="80" width="32" height="96"/>
    <rect class="cls-1" x="296" y="80" width="32" height="96"/>
    <rect class="cls-1" x="232" y="80" width="32" height="96"/>
  </g>
</svg>
