<svg id="export" xmlns="http://www.w3.org/2000/svg" viewBox="0 0 512 512">
  <defs>
    <style>
      .cls-1 {
        fill: currentColor;
      }
    </style>
  </defs>
  <title>signal-cellular-no-internet-0</title>
  <g>
    <polygon class="cls-1" points="456.78 16 16 456.78 16 496 416 496 416 464 54.034 464 464 54.034 464 200 496 200 496 16 456.78 16"/>
    <rect class="cls-1" x="448" y="248" width="32" height="184"/>
    <polygon class="cls-1" points="448 464 448 496 480 496 480 464 464 464 448 464"/>
  </g>
</svg>
