<svg id="export" xmlns="http://www.w3.org/2000/svg" viewBox="0 0 512 512">
  <defs>
    <style>
      .cls-1 {
        fill: currentColor;
      }
    </style>
  </defs>
  <title>globe-alt</title>
  <path class="cls-1" d="M256,16C123.4517,16,16,123.4517,16,256S123.4517,496,256,496,496,388.5483,496,256,388.5483,16,256,16ZM447.6674,175.0469a208.7922,208.7922,0,0,1,2.46,155.79L400,264H240V224l19.877-14.9077,81.3818,16.2764,37.5151-37.5152-16.51-41.2749,34.2036-43.9763q3.3617,3.084,6.61,6.32A207.3416,207.3416,0,0,1,447.6674,175.0469ZM108.9219,403.0781A208.2583,208.2583,0,0,1,64.3326,175.0469c1.0185-2.4081,2.0928-4.7849,3.1965-7.1448L120,215.126v63.2353L197.103,360H236v49.0469l-47.0516,43.9148q-7.0228-2.3936-13.9015-5.2942A207.3446,207.3446,0,0,1,108.9219,403.0781Zm294.1562,0A207.2482,207.2482,0,0,1,256,464a210.4566,210.4566,0,0,1-29.7214-2.1069L268,422.9531V328H210.897L152,265.6387V200.874L83.7042,139.408a209.2571,209.2571,0,0,1,91.3427-75.0755A207.786,207.786,0,0,1,371.3,82.8391l-45.564,58.5823,15.49,38.7251-10.4849,10.4848L252.123,174.9077,208,208v88H384l50.345,67.1261A208.1381,208.1381,0,0,1,403.0781,403.0781Z"/>
</svg>
