<svg id="export" xmlns="http://www.w3.org/2000/svg" viewBox="0 0 512 512">
  <defs>
    <style>
      .cls-1 {
        fill: currentColor;
      }
    </style>
  </defs>
  <title>signpost</title>
  <path class="cls-1" d="M430.6738,152H272V16H240V72H81.3262L16,137.9707V166.627L81.373,232H240V496h32V312H430.627L496,246.627V217.9707ZM94.6279,200,48,153.3721v-2.2383L94.6738,104H240v96ZM464,233.3721,417.3721,280H272V184H417.3262L464,231.1338Z"/>
</svg>
